<?xml version="1.0" encoding="utf-8"?>
<!-- Generator: Adobe Illustrator 27.5.0, SVG Export Plug-In . SVG Version: 6.00 Build 0)  -->
<svg version="1.1" id="Calque_1" xmlns="http://www.w3.org/2000/svg" xmlns:xlink="http://www.w3.org/1999/xlink" x="0px" y="0px"
	 viewBox="0 0 300 78" style="enable-background:new 0 0 300 78;" xml:space="preserve">
<style type="text/css">
	.st0{fill:#ED7203;}
	.st1{fill:#FFFFFF;}
	.st2{fill:#FFFFFF;stroke:#FFFFFF;stroke-width:0.4856;stroke-miterlimit:10;}
</style>
<g>
	<path class="st0" d="M174.2,34.75c0,3.28-0.57,6.15-1.69,8.63c-1.13,2.48-2.74,4.38-4.84,5.72c-2.1,1.34-4.52,2-7.27,2
		c-4.14,0-7.49-1.49-10.04-4.46c-2.55-2.97-3.83-6.99-3.83-12.04v-3.67c0-3.24,0.57-6.12,1.72-8.62c1.15-2.5,2.77-4.43,4.86-5.77
		c2.1-1.34,4.51-2.02,7.24-2.02s5.14,0.66,7.23,1.98c2.09,1.32,3.7,3.19,4.84,5.6c1.14,2.41,1.73,5.21,1.78,8.39V34.75z
		 M171.2,30.89c0-4.29-0.97-7.64-2.9-10.07c-1.94-2.43-4.58-3.64-7.95-3.64c-3.3,0-5.93,1.22-7.89,3.65
		c-1.96,2.44-2.94,5.84-2.94,10.21v3.72c0,4.22,0.97,7.57,2.93,10.04c1.95,2.47,4.6,3.7,7.95,3.7c3.4,0,6.05-1.22,7.95-3.66
		c1.9-2.44,2.85-5.83,2.85-10.18V30.89z"/>
	<path class="st1" d="M202.28,37.66c0,4.12-0.91,7.4-2.73,9.82c-1.82,2.42-4.26,3.63-7.31,3.63c-3.61,0-6.37-1.27-8.29-3.81v13.5
		h-2.9V24.17h2.71l0.15,3.74c1.9-2.82,4.66-4.23,8.26-4.23c3.15,0,5.63,1.2,7.42,3.59s2.69,5.72,2.69,9.98V37.66z M199.36,37.15
		c0-3.37-0.69-6.04-2.07-8c-1.38-1.96-3.31-2.93-5.78-2.93c-1.79,0-3.32,0.43-4.61,1.3c-1.28,0.86-2.27,2.12-2.95,3.76v12.69
		c0.7,1.52,1.7,2.67,3,3.47c1.3,0.8,2.84,1.2,4.61,1.2c2.45,0,4.37-0.98,5.74-2.95C198.67,43.73,199.36,40.88,199.36,37.15z"/>
	<path class="st1" d="M213.28,17.4v6.77h5.46v2.4h-5.46v17.65c0,1.47,0.26,2.56,0.79,3.28c0.53,0.72,1.41,1.08,2.65,1.08
		c0.49,0,1.28-0.08,2.37-0.25l0.12,2.38c-0.76,0.27-1.8,0.41-3.12,0.41c-2,0-3.45-0.58-4.36-1.75c-0.91-1.16-1.36-2.88-1.36-5.15
		V26.56h-4.85v-2.4h4.85V17.4H213.28z"/>
	<path class="st1" d="M224.61,16.53c0-0.55,0.18-1.02,0.54-1.4c0.36-0.38,0.84-0.57,1.46-0.57s1.11,0.19,1.48,0.57
		c0.37,0.38,0.55,0.85,0.55,1.4s-0.18,1.01-0.55,1.38c-0.37,0.37-0.86,0.56-1.48,0.56s-1.11-0.19-1.46-0.56
		C224.79,17.54,224.61,17.08,224.61,16.53z M228.05,50.62h-2.93V24.17h2.93V50.62z"/>
	<path class="st1" d="M238.63,24.17l0.1,4.3c0.98-1.6,2.19-2.79,3.66-3.59c1.46-0.8,3.09-1.2,4.88-1.2c4.16,0,6.8,1.71,7.92,5.13
		c0.94-1.65,2.2-2.91,3.78-3.8c1.58-0.89,3.32-1.33,5.22-1.33c5.66,0,8.54,3.1,8.66,9.29v17.65h-2.93V33.19
		c-0.02-2.36-0.52-4.12-1.52-5.26c-1-1.14-2.63-1.71-4.89-1.71c-2.1,0.03-3.87,0.71-5.31,2.04c-1.45,1.33-2.25,2.95-2.41,4.85v17.51
		h-2.93V32.97c-0.02-2.27-0.55-3.96-1.6-5.07c-1.05-1.12-2.66-1.68-4.84-1.68c-1.84,0-3.41,0.53-4.73,1.58
		c-1.32,1.05-2.29,2.61-2.93,4.68v18.14h-2.93V24.17H238.63z"/>
	<path class="st1" d="M296.88,50.62c-0.29-0.83-0.48-2.06-0.56-3.69c-1.02,1.34-2.33,2.37-3.91,3.09c-1.58,0.73-3.26,1.09-5.03,1.09
		c-2.54,0-4.59-0.71-6.16-2.13c-1.57-1.42-2.35-3.21-2.35-5.38c0-2.57,1.07-4.61,3.21-6.11c2.14-1.5,5.12-2.25,8.94-2.25h5.29v-3.01
		c0-1.89-0.58-3.38-1.74-4.46c-1.16-1.08-2.86-1.63-5.08-1.63c-2.03,0-3.71,0.52-5.05,1.56c-1.33,1.04-2,2.3-2,3.77l-2.93-0.02
		c0-2.1,0.98-3.92,2.93-5.46c1.95-1.54,4.35-2.31,7.19-2.31c2.94,0,5.26,0.74,6.96,2.21c1.7,1.47,2.57,3.53,2.62,6.17v12.52
		c0,2.56,0.27,4.47,0.81,5.75v0.29H296.88z M287.71,48.52c1.95,0,3.69-0.47,5.23-1.42c1.54-0.95,2.65-2.21,3.35-3.79v-5.82h-5.22
		c-2.91,0.03-5.18,0.57-6.83,1.6c-1.64,1.04-2.46,2.46-2.46,4.27c0,1.48,0.55,2.71,1.65,3.69
		C284.53,48.03,285.96,48.52,287.71,48.52z"/>
</g>
<g>
	<g>
		<polygon class="st1" points="10.18,7.86 4.15,7.86 8.9,20.88 1.69,20.88 0,25.5 10.58,25.5 13.37,33.16 19.4,33.16 		"/>
		<polygon class="st1" points="66.03,7.81 63.93,13.56 74.64,13.56 74.64,24.84 80.75,22.57 80.75,7.81 80.75,7.81 		"/>
		<polygon class="st1" points="16.78,7.81 40.55,7.81 38.45,13.56 30.11,13.56 30.11,33.16 23.98,33.16 23.98,13.56 16.78,13.56 		
			"/>
		<g>
			<g>
				<g>
					<g>
						<path class="st1" d="M74.57,42.1l1.7-6.15h1.69l1.66,6.15h-1.35l-0.34-1.36h-1.75l-0.35,1.36H74.57z M77.04,37.13h-0.02
							l-0.59,2.66h1.22L77.04,37.13z"/>
					</g>
				</g>
				<g>
					<g>
						<path class="st1" d="M80.99,35.95h0.78v3.93c0,1.34,0.41,1.69,1.15,1.69c0.74,0,1.15-0.34,1.15-1.69v-3.93h0.78v3.9
							c0,1.7-0.63,2.38-1.93,2.38c-1.3,0-1.93-0.67-1.93-2.38V35.95z"/>
					</g>
				</g>
				<g>
					<g>
						<path class="st1" d="M90.27,35.95v0.68h-1.61v5.47h-0.78v-5.47h-1.61v-0.68H90.27z"/>
					</g>
				</g>
				<g>
					<g>
						<path class="st1" d="M91.69,39.85v-2.02c0-1.23,0.63-2.01,1.93-2.01c1.3,0,1.93,0.78,1.93,2.01v2.02
							c0,1.7-0.63,2.38-1.93,2.38C92.32,42.22,91.69,41.55,91.69,39.85z M94.75,39.88v-2.08c0-1.29-0.88-1.33-1.13-1.33
							c-0.25,0-1.13,0.04-1.13,1.33v2.08c0,1.34,0.39,1.69,1.13,1.69C94.36,41.57,94.75,41.23,94.75,39.88z"/>
					</g>
				</g>
				<g>
					<g>
						<path class="st1" d="M98.3,39.27v2.83h-0.78v-6.15h2.11c1.09,0,1.47,0.77,1.47,1.53c0,0.72-0.4,1.28-1.12,1.4v0.02
							c0.7,0.11,0.96,0.35,1,1.58c0.01,0.26,0.09,1.23,0.21,1.61h-0.81c-0.22-0.42-0.17-1.23-0.24-2.04
							c-0.06-0.75-0.66-0.78-0.93-0.78H98.3z M98.3,38.59h1.17c0.56,0,0.83-0.48,0.83-1.02c0-0.44-0.22-0.94-0.82-0.94H98.3V38.59z"
							/>
					</g>
				</g>
				<g>
					<g>
						<path class="st1" d="M103.78,42.1H103v-6.15h0.78V42.1z"/>
					</g>
				</g>
				<g>
					<g>
						<path class="st1" d="M106.49,40.27v0.18c0,0.83,0.53,1.1,1.03,1.1c0.62,0,1.1-0.26,1.1-1c0-1.36-2.75-1.21-2.75-3.06
							c0-1.09,0.77-1.67,1.8-1.67c1.12,0,1.75,0.54,1.7,1.8h-0.82c0.01-0.67-0.2-1.11-0.94-1.11c-0.47,0-0.94,0.24-0.94,0.9
							c0,1.35,2.75,1.16,2.75,3.11c0,1.29-0.89,1.71-1.9,1.71c-1.81,0.02-1.81-1.37-1.79-1.96H106.49z"/>
					</g>
				</g>
				<g>
					<g>
						<path class="st1" d="M111.25,42.1v-6.15h3.16v0.68h-2.38v1.97h2.21v0.68h-2.21v2.13h2.43v0.68H111.25z"/>
					</g>
				</g>
			</g>
		</g>
		<g>
			<g>
				<g>
					<g>
						<path class="st1" d="M78.75,47.01v1.02h-1.43v5.13h-1.28v-5.13h-1.43v-1.02H78.75z"/>
					</g>
				</g>
				<g>
					<g>
						<path class="st1" d="M80.11,50.91v-2.02c0-1.23,0.63-2.01,1.93-2.01c1.3,0,1.93,0.78,1.93,2.01v2.02
							c0,1.7-0.63,2.38-1.93,2.38C80.74,53.29,80.11,52.61,80.11,50.91z M83.16,50.95v-2.08c0-1.29-0.88-1.33-1.13-1.33
							c-0.25,0-1.13,0.04-1.13,1.33v2.08c0,1.35,0.39,1.69,1.13,1.69C82.77,52.63,83.16,52.29,83.16,50.95z"/>
					</g>
				</g>
				<g>
					<g>
						<path class="st1" d="M85.93,47.01h0.78v3.93c0,1.35,0.41,1.69,1.15,1.69c0.74,0,1.15-0.34,1.15-1.69v-3.93h0.78v3.9
							c0,1.7-0.63,2.38-1.93,2.38c-1.3,0-1.93-0.67-1.93-2.38V47.01z"/>
					</g>
				</g>
				<g>
					<g>
						<path class="st1" d="M95.22,47.01v0.68H93.6v5.47h-0.78v-5.47h-1.61v-0.68H95.22z"/>
					</g>
				</g>
				<g>
					<g>
						<path class="st1" d="M96.66,53.16v-6.15h3.16v0.68h-2.38v1.97h2.21v0.68h-2.21v2.13h2.43v0.68H96.66z"/>
					</g>
				</g>
			</g>
		</g>
		<g>
			<g>
				<g>
					<g>
						<path class="st1" d="M55.99,61.28c0-1.63,0-3.17,2.11-3.17c1.31,0,1.83,0.72,1.78,2.04h-1.26c0-0.82-0.14-1.12-0.53-1.12
							c-0.72,0-0.82,0.68-0.82,2.26c0,1.58,0.09,2.26,0.82,2.26c0.59,0,0.57-0.77,0.59-1.25h1.27c0,1.64-0.65,2.17-1.85,2.17
							C55.99,64.45,55.99,62.89,55.99,61.28z"/>
					</g>
				</g>
				<g>
					<g>
						<path class="st1" d="M62.32,61.53v2.83h-0.78V58.2h2.11c1.09,0,1.47,0.77,1.47,1.53c0,0.72-0.4,1.28-1.12,1.4v0.02
							c0.71,0.11,0.96,0.35,1,1.58c0.01,0.26,0.09,1.23,0.21,1.61H64.4c-0.22-0.42-0.17-1.23-0.24-2.04
							c-0.06-0.75-0.66-0.78-0.93-0.78H62.32z M62.32,60.84h1.17c0.56,0,0.83-0.48,0.83-1.02c0-0.44-0.22-0.94-0.82-0.94h-1.18
							V60.84z"/>
					</g>
				</g>
				<g>
					<g>
						<path class="st1" d="M66.91,64.35V58.2h3.16v0.68h-2.38v1.97h2.21v0.68h-2.21v2.13h2.43v0.68H66.91z M69.36,56.36l-1.11,1.2
							h-0.57l0.76-1.2H69.36z"/>
					</g>
				</g>
				<g>
					<g>
						<path class="st1" d="M73.18,58.2h0.99l2,6.15h-0.87l-0.44-1.46h-2.37l-0.46,1.46h-0.79L73.18,58.2z M73.65,58.93h-0.02
							l-0.96,3.28h1.96L73.65,58.93z"/>
					</g>
				</g>
				<g>
					<g>
						<path class="st1" d="M80.43,58.2v0.68h-1.61v5.47h-0.78v-5.47h-1.61V58.2H80.43z"/>
					</g>
				</g>
				<g>
					<g>
						<path class="st1" d="M82.75,64.35h-0.78V58.2h0.78V64.35z"/>
					</g>
				</g>
				<g>
					<g>
						<path class="st1" d="M87,64.35h-0.93l-1.77-6.15h0.85l1.4,5.41h0.02l1.43-5.41h0.8L87,64.35z"/>
					</g>
				</g>
				<g>
					<g>
						<path class="st1" d="M91.1,64.35h-0.78V58.2h0.78V64.35z"/>
					</g>
				</g>
				<g>
					<g>
						<path class="st1" d="M96.66,58.2v0.68h-1.61v5.47h-0.78v-5.47h-1.61V58.2H96.66z"/>
					</g>
				</g>
				<g>
					<g>
						<path class="st1" d="M98.1,64.35V58.2h3.16v0.68h-2.38v1.97h2.21v0.68h-2.21v2.13h2.43v0.68H98.1z M100.54,56.36l-1.11,1.2
							h-0.57l0.76-1.2H100.54z"/>
					</g>
				</g>
			</g>
		</g>
		<path class="st1" d="M28.34,58.31c-3.89,0-7.05-3.02-7.05-6.73c0-3.71,3.16-6.73,7.05-6.73c0.63,0,1.23,0.09,1.81,0.23v-6.5
			c-0.59-0.08-1.2-0.13-1.81-0.13c-7.4,0-13.43,5.89-13.43,13.13c0,7.24,6.02,13.13,13.43,13.13c0.62,0,1.22-0.06,1.81-0.13v-6.5
			C29.58,58.23,28.97,58.31,28.34,58.31z"/>
	</g>
</g>
<line class="st2" x1="130.89" y1="0" x2="130.89" y2="78"/>
</svg>
